{
  "project_info": {
    "project_number": "103367759246",
    "firebase_url": "https://hellmonth-b0318.firebaseio.com",
    "project_id": "hellmonth-b0318",
    "storage_bucket": "hellmonth-b0318.appspot.com"
  },
  "client": [
    {
      "client_info": {
        "mobilesdk_app_id": "1:103367759246:android:4c0bde3ac67d5f84",
        "android_client_info": {
          "package_name": "com.motus.fit"
        }
      },
      "oauth_client": [
        {
          "client_id": "103367759246-n9uqejrsdfkllcg46170clihn98hjvko.apps.googleusercontent.com",
          "client_type": 3
        }
      ],
      "api_key": [
        {
          "current_key": "AIzaSyA_OdiTq278K9tL-PZbnH98R5xweoWwlkg"
        }
      ],
      "services": {
        "analytics_service": {
          "status": 1
        },
        "appinvite_service": {
          "status": 1,
          "other_platform_oauth_client": []
        },
        "ads_service": {
          "status": 2
        }
      }
    },
    {
      "client_info": {
        "mobilesdk_app_id": "1:103367759246:android:1bc41e429af3421a",
        "android_client_info": {
          "package_name": "com.motusapp"
        }
      },
      "oauth_client": [
        {
          "client_id": "103367759246-8bfuuad2rphns9tcns3cve75098jqgng.apps.googleusercontent.com",
          "client_type": 1,
          "android_info": {
            "package_name": "com.motusapp",
            "certificate_hash": "c32359d0d078e2c67774d8dfc87a38847585f4d1"
          }
        },
        {
          "client_id": "103367759246-n9uqejrsdfkllcg46170clihn98hjvko.apps.googleusercontent.com",
          "client_type": 3
        }
      ],
      "api_key": [
        {
          "current_key": "AIzaSyA_OdiTq278K9tL-PZbnH98R5xweoWwlkg"
        }
      ],
      "services": {
        "analytics_service": {
          "status": 1
        },
        "appinvite_service": {
          "status": 2,
          "other_platform_oauth_client": [
            {
              "client_id": "103367759246-n9uqejrsdfkllcg46170clihn98hjvko.apps.googleusercontent.com",
              "client_type": 3
            },
            {
              "client_id": "103367759246-ufktd0bogpmq2q7acavjv5nolu3li60t.apps.googleusercontent.com",
              "client_type": 2,
              "ios_info": {
                "bundle_id": "com.motus.fit"
              }
            }
          ]
        },
        "ads_service": {
          "status": 2
        }
      }
    }
  ],
  "configuration_version": "1"
}